{
  "description": "A protocol to determine whether a array of processes have all terminated a task.",
  "deadlockThreshold": 1,
  "alphabet": ["a", "b", "c", "d"],
  "initial": {
    "states": ["q0"],
    "initialState": "q0",
    "acceptingStates": ["q0"],
    "transitions": [
      {
        "origin": "q0",
        "target": "q0",
        "letter": "a"
      }
    ]
  },
  "transducer": {
    "states": ["q0", "q1", "q2", "q3", "q4", "q5"],
    "initialState": "q0",
    "acceptingStates": ["q1", "q5"],
    "transitions": [
      {
        "origin": "q0",
        "target": "q1",
        "letter": "a,b|d,a"
      },
      {
        "origin": "q1",
        "target": "q1",
        "letter": "(.*),\\1"
      },
      {
        "origin": "q0",
        "target": "q2",
        "letter": "(.*),\\1"
      },
      {
        "origin": "q2",
        "target": "q2",
        "letter": "(.*),\\1"
      },
      {
        "origin": "q0",
        "target": "q3",
        "letter": "b,c"
      },
      {
        "origin": "q2",
        "target": "q3",
        "letter": "b,c"
      },
      {
        "origin": "q3",
        "target": "q1",
        "letter": "a,b"
      },
      {
        "origin": "q0",
        "target": "q4",
        "letter": "c,d"
      },
      {
        "origin": "q2",
        "target": "q4",
        "letter": "c,d"
      },
      {
        "origin": "q4",
        "target": "q1",
        "letter": "d,a"
      },
      {
        "origin": "q0",
        "target": "q5",
        "letter": "c,d|b,c"
      },
      {
        "origin": "q2",
        "target": "q5",
        "letter": "c,d|b,c"
      }
    ]
  },
  "properties": {
    "twob": {
      "states": ["q0", "q1", "q2"],
      "initialState": "q0",
      "acceptingStates": ["q2"],
      "transitions": [
        {
          "origin": "q0",
          "target": "q0",
          "letter": "(.*)"
        },
        {
          "origin": "q1",
          "target": "q1",
          "letter": "(.*)"
        },
        {
          "origin": "q2",
          "target": "q2",
          "letter": "(.*)"
        },
        {
          "origin": "q0",
          "target": "q1",
          "letter": "b"
        },
        {
          "origin": "q1",
          "target": "q2",
          "letter": "b"
        }
      ]
    },
    "twod": {
      "states": ["q0", "q1", "q2"],
      "initialState": "q0",
      "acceptingStates": ["q2"],
      "transitions": [
        {
          "origin": "q0",
          "target": "q0",
          "letter": "(.*)"
        },
        {
          "origin": "q1",
          "target": "q1",
          "letter": "(.*)"
        },
        {
          "origin": "q2",
          "target": "q2",
          "letter": "(.*)"
        },
        {
          "origin": "q0",
          "target": "q1",
          "letter": "d"
        },
        {
          "origin": "q1",
          "target": "q2",
          "letter": "d"
        }
      ]
    }
  }
}