{
  "description": "The cache coherence protocol FutureBus+.",
  "topology": "crowd",
  "k": 2,
  "deadlockThreshold": 1,
  "alphabet": ["i", "s", "eu", "em", "pr", "pw", "pemr", "pemw", "psu"],
  "initial": {
    "states": ["q0"],
    "initialState": "q0",
    "acceptingStates": ["q0"],
    "transitions": [
      {
        "origin": "q0",
        "target": "q0",
        "letter": "i"
      }
    ]
  },
  "transducer": {
    "states": ["q0", "q1", "q2", "q3", "q4", "q5", "q6", "q7", "q8", "q9", "q10", "q11", "q12", "q13", "q14", "q15", "q16", "q17", "q18", "q19", "q20", "q21"],
    "initialState": "q0",
    "acceptingStates": ["q2", "q4", "q6", "q8", "q11", "q13", "q15", "q17", "q19", "q21"],
    "transitions": [
      {
        "origin": "q0",
        "target": "q1",
        "letter": "(.*),\\1"
      },
      {
        "origin": "q1",
        "target": "q1",
        "letter": "(.*),\\1"
      },
      {
        "origin": "q0",
        "target": "q2",
        "letter": "(s,s|eu,eu|em,em|eu,em)"
      },
      {
        "origin": "q1",
        "target": "q2",
        "letter": "(s,s|eu,eu|em,em|eu,em)"
      },
      {
        "origin": "q2",
        "target": "q2",
        "letter": "(.*),\\1"
      },
      {
        "origin": "q0",
        "target": "q3",
        "letter": "(i,i|s,psu|eu,psu|em,pemr|pr,pr|pemr,pemr|psu,psu|pemw,pemw)"
      },
      {
        "origin": "q3",
        "target": "q3",
        "letter": "(i,i|s,psu|eu,psu|em,pemr|pr,pr|pemr,pemr|psu,psu|pemw,pemw)"
      },
      {
        "origin": "q0",
        "target": "q4",
        "letter": "i,pr"
      },
      {
        "origin": "q3",
        "target": "q4",
        "letter": "i,pr"
      },
      {
        "origin": "q4",
        "target": "q4",
        "letter": "(i,i|s,psu|eu,psu|em,pemr|pr,pr|pemr,pemr|psu,psu|pemw,pemw)"
      },
      {
        "origin": "q0",
        "target": "q5",
        "letter": "(i,i|s,s|eu,eu|em,em|pr,s|pw,pw|pemr,pemr|pemw,pemw|psu,psu)"
      },
      {
        "origin": "q5",
        "target": "q5",
        "letter": "(i,i|s,s|eu,eu|em,em|pr,s|pw,pw|pemr,pemr|pemw,pemw|psu,psu)"
      },
      {
        "origin": "q0",
        "target": "q6",
        "letter": "pemr,s"
      },
      {
        "origin": "q5",
        "target": "q6",
        "letter": "pemr,s"
      },
      {
        "origin": "q6",
        "target": "q6",
        "letter": "(i,i|s,s|eu,eu|em,em|pr,s|pw,pw|pemr,pemr|pemw,pemw|psu,psu)"
      },
      {
        "origin": "q0",
        "target": "q7",
        "letter": "(i,i|s,s|eu,eu|em,em|pr,s|pw,pw|pemr,pemr|pemw,pemw|psu,s)"
      },
      {
        "origin": "q7",
        "target": "q7",
        "letter": "(i,i|s,s|eu,eu|em,em|pr,s|pw,pw|pemr,pemr|pemw,pemw|psu,s)"
      },
      {
        "origin": "q0",
        "target": "q8",
        "letter": "psu,s"
      },
      {
        "origin": "q7",
        "target": "q8",
        "letter": "psu,s"
      },
      {
        "origin": "q8",
        "target": "q8",
        "letter": "(i,i|s,s|eu,eu|em,em|pr,s|pw,pw|pemr,pemr|pemw,pemw|psu,s)"
      },
      {
        "origin": "q0",
        "target": "q9",
        "letter": "(i,i|s,s|eu,eu|em,em|pr,s|pw,pw|pemw,pemw)"
      },
      {
        "origin": "q9",
        "target": "q9",
        "letter": "(i,i|s,s|eu,eu|em,em|pr,s|pw,pw|pemw,pemw)"
      },
      {
        "origin": "q0",
        "target": "q10",
        "letter": "pr,s"
      },
      {
        "origin": "q9",
        "target": "q10",
        "letter": "pr,s"
      },
      {
        "origin": "q10",
        "target": "q11",
        "letter": "pr,s"
      },
      {
        "origin": "q10",
        "target": "q10",
        "letter": "(i,i|s,s|eu,eu|em,em|pr,s|pw,pw|pemw,pemw)"
      },
      {
        "origin": "q11",
        "target": "q11",
        "letter": "(i,i|s,s|eu,eu|em,em|pr,s|pw,pw|pemw,pemw)"
      },
      {
        "origin": "q0",
        "target": "q12",
        "letter": "i,i|s,s|eu,eu|em,em|pw,pw|pemw,pemw"
      },
      {
        "origin": "q12",
        "target": "q12",
        "letter": "i,i|s,s|eu,eu|em,em|pw,pw|pemw,pemw"
      },
      {
        "origin": "q0",
        "target": "q13",
        "letter": "pr,eu"
      },
      {
        "origin": "q12",
        "target": "q13",
        "letter": "pr,eu"
      },
      {
        "origin": "q13",
        "target": "q13",
        "letter": "i,i|s,s|eu,eu|em,em|pw,pw|pemw,pemw"
      },
      {
        "origin": "q0",
        "target": "q14",
        "letter": "i,i|s,i|eu,i|em,pemw|pr,i|pemr,i|pemw,i|psu,i"
      },
      {
        "origin": "q14",
        "target": "q14",
        "letter": "i,i|s,i|eu,i|em,pemw|pr,i|pemr,i|pemw,i|psu,i"
      },
      {
        "origin": "q0",
        "target": "q15",
        "letter": "i,pw"
      },
      {
        "origin": "q14",
        "target": "q15",
        "letter": "i,pw"
      },
      {
        "origin": "q15",
        "target": "q15",
        "letter": "i,i|s,i|eu,i|em,pemw|pr,i|pemr,i|pemw,i|psu,i"
      },
      {
        "origin": "q0",
        "target": "q16",
        "letter": "i,i|s,s|eu,eu|em,em|pr,pr|pw,em|pemr,pemr|pemw,pemw|psu,psu"
      },
      {
        "origin": "q16",
        "target": "q16",
        "letter": "i,i|s,s|eu,eu|em,em|pr,pr|pw,em|pemr,pemr|pemw,pemw|psu,psu"
      },
      {
        "origin": "q0",
        "target": "q17",
        "letter": "pemw,i"
      },
      {
        "origin": "q16",
        "target": "q17",
        "letter": "pemw,i"
      },
      {
        "origin": "q17",
        "target": "q17",
        "letter": "i,i|s,s|eu,eu|em,em|pr,pr|pw,em|pemr,pemr|pemw,pemw|psu,psu"
      },
      {
        "origin": "q0",
        "target": "q18",
        "letter": "i,i|s,s|eu,eu|em,em|pr,pr|pw,em|pemr,pemr|psu,psu"
      },
      {
        "origin": "q18",
        "target": "q18",
        "letter": "i,i|s,s|eu,eu|em,em|pr,pr|pw,em|pemr,pemr|psu,psu"
      },
      {
        "origin": "q0",
        "target": "q19",
        "letter": "pw,em"
      },
      {
        "origin": "q18",
        "target": "q19",
        "letter": "pw,em"
      },
      {
        "origin": "q19",
        "target": "q19",
        "letter": "i,i|s,s|eu,eu|em,em|pr,pr|pw,em|pemr,pemr|psu,psu"
      },
      {
        "origin": "q0",
        "target": "q20",
        "letter": "i,i|s,i|eu,eu|em,em|pr,pr|pw,pw|pemr,pemr|pemw,pemw|psu,psu"
      },
      {
        "origin": "q20",
        "target": "q20",
        "letter": "i,i|s,i|eu,eu|em,em|pr,pr|pw,pw|pemr,pemr|pemw,pemw|psu,psu"
      },
      {
        "origin": "q0",
        "target": "q21",
        "letter": "s,em"
      },
      {
        "origin": "q20",
        "target": "q21",
        "letter": "s,em"
      },
      {
        "origin": "q21",
        "target": "q21",
        "letter": "i,i|s,i|eu,eu|em,em|pr,pr|pw,pw|pemr,pemr|pemw,pemw|psu,psu"
      }
    ]
  },
  "properties": {
    "pendingrightsecond": {
      "states": ["q0", "q1", "q2"],
      "initialState": "q0",
      "acceptingStates": ["q2"],
      "transitions": [
        {
          "origin": "q0",
          "target": "q0",
          "letter": "(.*)"
        },
        {
          "origin": "q1",
          "target": "q1",
          "letter": "(.*)"
        },
        {
          "origin": "q2",
          "target": "q2",
          "letter": "(.*)"
        },
        {
          "origin": "q0",
          "target": "q1",
          "letter": "pw"
        },
        {
          "origin": "q1",
          "target": "q2",
          "letter": "pw"
        }
      ]
    },
    "sharedexclusive": {
      "states": ["q0", "q1", "q2", "q3"],
      "initialState": "q0",
      "acceptingStates": ["q3"],
      "transitions": [
        {
          "origin": "q0",
          "target": "q0",
          "letter": "(.*)"
        },
        {
          "origin": "q1",
          "target": "q1",
          "letter": "(.*)"
        },
        {
          "origin": "q2",
          "target": "q2",
          "letter": "(.*)"
        },
        {
          "origin": "q3",
          "target": "q3",
          "letter": "(.*)"
        },
        {
          "origin": "q0",
          "target": "q1",
          "letter": "s"
        },
        {
          "origin": "q0",
          "target": "q2",
          "letter": "(eu|em)"
        },
        {
          "origin": "q1",
          "target": "q3",
          "letter": "(eu|em)"
        },
        {
          "origin": "q2",
          "target": "q3",
          "letter": "s"
        }
      ]
    },
    "secondpending": {
      "states": ["q0", "q1", "q2", "q3"],
      "initialState": "q0",
      "acceptingStates": ["q3"],
      "transitions": [
        {
          "origin": "q0",
          "target": "q0",
          "letter": "(.*)"
        },
        {
          "origin": "q1",
          "target": "q1",
          "letter": "(.*)"
        },
        {
          "origin": "q2",
          "target": "q2",
          "letter": "(.*)"
        },
        {
          "origin": "q3",
          "target": "q3",
          "letter": "(.*)"
        },
        {
          "origin": "q0",
          "target": "q1",
          "letter": "pr"
        },
        {
          "origin": "q0",
          "target": "q2",
          "letter": "pw"
        },
        {
          "origin": "q1",
          "target": "q3",
          "letter": "pw"
        },
        {
          "origin": "q2",
          "target": "q3",
          "letter": "pr"
        }
      ]
    },
    "exclusiveexclusive": {
      "states": ["q0", "q1", "q2", "q3"],
      "initialState": "q0",
      "acceptingStates": ["q3"],
      "transitions": [
        {
          "origin": "q0",
          "target": "q0",
          "letter": "(.*)"
        },
        {
          "origin": "q1",
          "target": "q1",
          "letter": "(.*)"
        },
        {
          "origin": "q2",
          "target": "q2",
          "letter": "(.*)"
        },
        {
          "origin": "q3",
          "target": "q3",
          "letter": "(.*)"
        },
        {
          "origin": "q0",
          "target": "q1",
          "letter": "eu"
        },
        {
          "origin": "q0",
          "target": "q2",
          "letter": "em"
        },
        {
          "origin": "q1",
          "target": "q3",
          "letter": "em"
        },
        {
          "origin": "q2",
          "target": "q3",
          "letter": "eu"
        }
      ]
    }
  }
}